Type,Description,Credits,Drive,Weapon,Power,Armour,Shield,Hangar,Speed,Shipyard,Requires
Fighters,Good fighting unit against unshielded units.,5,Inter,Laser,2,2,,-1,,1,Laser 1
Bombers,Good fighting unit against unshielded and low shield units.,10,Inter,Missiles,4,2,,-1,,2,Missiles 1
Heavy Bombers,Good fighting unit against medium shielded units.,30,Inter,Plasma,10,4,,-2,,3,Plasma 14
Ion Bombers,"Good against high shielded units, 50% power cross shields.",60,Inter,Ion,12,4,1,-2,,3,Ion 10 + Shielding 10
Corvette,"Very fast unit, good against unshielded units.",20,Stellar,Laser,4,4,,0,8,4,Laser 2 + Stellar Drive 1 + Armour 2
Recycler,Can collect debris and convert them into credits.,30,Stellar,Laser,2,2,,0,5,5,Laser 1 + Stellar Drive 1 + Armour 2
Destroyer,"Fast unit, good against low shielded units.",40,Stellar,Plasma,8,8,,0,5,6,Plasma 1 + Stellar Drive 2 + Armour 6
Frigate,"Versatile unit, has 4 hangar space.",80,Stellar,Missiles,12,12,,4,5,8,Missiles 6 + Stellar Drive 4 + Armour 8
Ion Frigate,"Versatile unit, 50% power cross shields.",120,Stellar,Ion,14,12,1,4,5,8,Ion 10 + Stellar Drive 4 + Armour 8 + Shielding 10
Scout Ship,"Faster ship, good for scouting.",40,Warp,Laser,1,2,,0,15,4,Warp Drive 1
Outpost Ship,Warp unit that can build a new base.,100,Warp,Laser,2,4,,0,3,8,Warp Drive 1
Cruiser,"Versatile unit, good for long range action and escort.",200,Warp,Plasma,24,24,2,4,4,10,Plasma 4 + Warp Drive 2 + Armour 10 + Shielding 2
Carrier,Unit with 60 hangar spaces.,400,Warp,Missiles,12,24,2,60,4,12,Missiles 6 + Warp Drive 4 + Armour 10 + Shielding 2
Heavy Cruiser,"Strong unit, good against large units.",500,Warp,Plasma,48,48,4,8,3,12,Plasma 6 + Warp Drive 4 + Armour 12 + Shielding 4
Battleship,"Strong unit, good against large units.",2000,Warp,Ion,168,128,10,40,3,16,Ion 6 + Warp Drive 8 + Armour 16 + Shielding 8
Fleet Carrier,Large carrier with 400 hangar spaces.,2500,Warp,Ion,64,96,8,400,3,16,Ion 4 + Warp Drive 8 + Armour 14 + Shielding 6
Dreadnought,Very strong combat unit.,10000,Warp,Photon,756,512,20,200,2.5,20 (1),Photon 6 + Warp Drive 12 +Armour 20 + Shielding 10
Titan,Very large and strong combat unit.,50000,Warp,Disruptor,3500,2048,30,1000,2,22 (3),Disruptor 6 + Warp Drive 14+ Armour 22 + Shielding 14
Leviathan,"Huge combat unit, gives +5% power and armour to fleet.",200000,Warp,Photon,10000,6600,40,4000,1.5,24 (5),Photon 12 + Warp Drive 18+ Armour 24 + Shielding 16
Death Star,"Biggest unit, can't use jump gates, gives +10% power and armour to fleet.",500000,Warp,Disruptor,26500,14000,60,10000,1.5,26 (7),Disruptor 10 + Warp Drive 20 + Armour 26 + Shielding 18
